\relax 
\providecommand\hyper@newdestlabel[2]{}
\catcode `"\active 
\providecommand\HyperFirstAtBeginDocument{\AtBeginDocument}
\HyperFirstAtBeginDocument{\ifx\hyper@anchor\@undefined
\global\let\oldcontentsline\contentsline
\gdef\contentsline#1#2#3#4{\oldcontentsline{#1}{#2}{#3}}
\global\let\oldnewlabel\newlabel
\gdef\newlabel#1#2{\newlabelxx{#1}#2}
\gdef\newlabelxx#1#2#3#4#5#6{\oldnewlabel{#1}{{#2}{#3}}}
\AtEndDocument{\ifx\hyper@anchor\@undefined
\let\contentsline\oldcontentsline
\let\newlabel\oldnewlabel
\fi}
\fi}
\global\let\hyper@last\relax 
\gdef\HyperFirstAtBeginDocument#1{#1}
\providecommand\HyField@AuxAddToFields[1]{}
\providecommand\HyField@AuxAddToCoFields[2]{}
\select@language{portuges}
\@writefile{toc}{\select@language{portuges}}
\@writefile{lof}{\select@language{portuges}}
\@writefile{lot}{\select@language{portuges}}
\@writefile{toc}{\contentsline {section}{\numberline {1}\relax \fontsize  {12}{14}\selectfont  Introdu\IeC {\c c}\IeC {\~a}o}{1}{section.1}}
\@writefile{toc}{\contentsline {section}{\numberline {2}Modos Normais}{1}{section.2}}
\@writefile{lof}{\contentsline {figure}{\numberline {1}{\ignorespaces Modo Normal 2 p\IeC {\^e}ndulos em fase \relax }}{1}{figure.caption.2}}
\providecommand*\caption@xref[2]{\@setref\relax\@undefined{#1}}
\newlabel{fig1}{{1}{1}{Modo Normal 2 pêndulos em fase \relax }{figure.caption.2}{}}
\@writefile{lof}{\contentsline {figure}{\numberline {2}{\ignorespaces Modo Normal 2 p\IeC {\^e}ndulos em oposi\IeC {\c c}\IeC {\~a}o fase \relax }}{1}{figure.caption.4}}
\newlabel{fig2}{{2}{1}{Modo Normal 2 pêndulos em oposição fase \relax }{figure.caption.4}{}}
\bibcite{lamport94}{1}
\bibcite{lamport94}{2}
\bibcite{lamport94}{3}
\@writefile{lof}{\contentsline {figure}{\numberline {3}{\ignorespaces Modo Normal 13 p\IeC {\^e}ndulos exemplo 1 \relax }}{2}{figure.caption.6}}
\newlabel{fig2}{{3}{2}{Modo Normal 13 pêndulos exemplo 1 \relax }{figure.caption.6}{}}
\@writefile{lof}{\contentsline {figure}{\numberline {4}{\ignorespaces Modo Normal 13 p\IeC {\^e}ndulos exemplo 2 \relax }}{2}{figure.caption.8}}
\newlabel{fig2}{{4}{2}{Modo Normal 13 pêndulos exemplo 2 \relax }{figure.caption.8}{}}
\@writefile{lof}{\contentsline {figure}{\numberline {5}{\ignorespaces Modo Normal 42 p\IeC {\^e}ndulos todos em fase \relax }}{2}{figure.caption.10}}
\newlabel{fig2}{{5}{2}{Modo Normal 42 pêndulos todos em fase \relax }{figure.caption.10}{}}
\@writefile{lof}{\contentsline {figure}{\numberline {6}{\ignorespaces Modo Normal 42 p\IeC {\^e}ndulos (metade em fase entre si) \relax }}{2}{figure.caption.12}}
\newlabel{fig2}{{6}{2}{Modo Normal 42 pêndulos (metade em fase entre si) \relax }{figure.caption.12}{}}
\@writefile{toc}{\contentsline {section}{\numberline {3}Aproxima\IeC {\c c}\IeC {\~a}o Corda}{2}{section.3}}
\@writefile{lof}{\contentsline {figure}{\numberline {7}{\ignorespaces Modo Normal 42 p\IeC {\^e}ndulos todos em fase \relax }}{2}{figure.caption.14}}
\newlabel{fig2}{{7}{2}{Modo Normal 42 pêndulos todos em fase \relax }{figure.caption.14}{}}
